[{"DateAccepted":"2/22/2018","Volunteers":"Avavee","DateStarted":"4/8/2019","DateCompleted":"12/25/2021","Comments":"disintermediate cross-media vortals","Expenses":571,"HoursWorked":11,"Mileage":62,"Donation":682,"JobReferral":2},
{"DateAccepted":"10/26/2018","Volunteers":"Voomm","DateStarted":"2/18/2019","DateCompleted":"12/27/2019","Comments":"engage virtual synergies","Expenses":968,"HoursWorked":7,"Mileage":84,"Donation":517,"JobReferral":2},
{"DateAccepted":"8/4/2018","Volunteers":"Innojam","DateStarted":"1/20/2019","DateCompleted":"12/17/2021","Comments":"harness frictionless bandwidth","Expenses":282,"HoursWorked":17,"Mileage":29,"Donation":737,"JobReferral":2},
{"DateAccepted":"11/23/2018","Volunteers":"Centizu","DateStarted":"1/29/2019","DateCompleted":"11/9/2019","Comments":"deploy granular infomediaries","Expenses":79,"HoursWorked":7,"Mileage":6,"Donation":330,"JobReferral":2},
{"DateAccepted":"10/30/2018","Volunteers":"Roomm","DateStarted":"4/29/2019","DateCompleted":"2/1/2020","Comments":"expedite mission-critical e-services","Expenses":789,"HoursWorked":3,"Mileage":44,"Donation":403,"JobReferral":3},
{"DateAccepted":"3/12/2018","Volunteers":"Cogilith","DateStarted":"3/7/2019","DateCompleted":"2/11/2020","Comments":"deliver best-of-breed applications","Expenses":631,"HoursWorked":5,"Mileage":19,"Donation":591,"JobReferral":3},
{"DateAccepted":"10/29/2018","Volunteers":"Twitterwire","DateStarted":"1/15/2019","DateCompleted":"3/22/2020","Comments":"e-enable vertical infomediaries","Expenses":897,"HoursWorked":2,"Mileage":7,"Donation":15,"JobReferral":3},
{"DateAccepted":"5/6/2018","Volunteers":"Rhyloo","DateStarted":"2/18/2019","DateCompleted":"12/6/2019","Comments":"incentivize collaborative metrics","Expenses":381,"HoursWorked":5,"Mileage":8,"Donation":661,"JobReferral":3},
{"DateAccepted":"5/15/2018","Volunteers":"Voonder","DateStarted":"4/17/2019","DateCompleted":"11/25/2021","Comments":"seize front-end e-services","Expenses":558,"HoursWorked":20,"Mileage":3,"Donation":957,"JobReferral":1},
{"DateAccepted":"9/30/2018","Volunteers":"Dabfeed","DateStarted":"2/11/2019","DateCompleted":"10/4/2019","Comments":"brand killer e-commerce","Expenses":739,"HoursWorked":11,"Mileage":76,"Donation":273,"JobReferral":1},
{"DateAccepted":"5/15/2018","Volunteers":"Gigaclub","DateStarted":"5/22/2019","DateCompleted":"8/20/2019","Comments":"enable robust paradigms","Expenses":501,"HoursWorked":7,"Mileage":40,"Donation":56,"JobReferral":1},
{"DateAccepted":"10/30/2018","Volunteers":"Avamm","DateStarted":"2/13/2019","DateCompleted":"8/29/2020","Comments":"integrate cross-media ROI","Expenses":184,"HoursWorked":1,"Mileage":64,"Donation":229,"JobReferral":2},
{"DateAccepted":"11/30/2018","Volunteers":"Wikizz","DateStarted":"4/27/2019","DateCompleted":"8/17/2020","Comments":"expedite dynamic mindshare","Expenses":944,"HoursWorked":14,"Mileage":48,"Donation":548,"JobReferral":1},
{"DateAccepted":"8/2/2018","Volunteers":"Tavu","DateStarted":"4/8/2019","DateCompleted":"11/29/2021","Comments":"generate frictionless infrastructures","Expenses":584,"HoursWorked":22,"Mileage":17,"Donation":37,"JobReferral":1},
{"DateAccepted":"2/15/2018","Volunteers":"Flashdog","DateStarted":"2/27/2019","DateCompleted":"11/16/2020","Comments":"transform integrated infomediaries","Expenses":734,"HoursWorked":1,"Mileage":46,"Donation":833,"JobReferral":2},
{"DateAccepted":"2/24/2018","Volunteers":"Rooxo","DateStarted":"5/22/2019","DateCompleted":"4/7/2020","Comments":"benchmark customized ROI","Expenses":875,"HoursWorked":4,"Mileage":40,"Donation":925,"JobReferral":1},
{"DateAccepted":"11/29/2018","Volunteers":"Twitterlist","DateStarted":"1/4/2019","DateCompleted":"3/8/2021","Comments":"synthesize out-of-the-box portals","Expenses":814,"HoursWorked":12,"Mileage":87,"Donation":848,"JobReferral":3},
{"DateAccepted":"3/28/2018","Volunteers":"BlogXS","DateStarted":"5/20/2019","DateCompleted":"3/16/2021","Comments":"facilitate B2B functionalities","Expenses":487,"HoursWorked":20,"Mileage":2,"Donation":378,"JobReferral":2},
{"DateAccepted":"7/16/2018","Volunteers":"Jayo","DateStarted":"2/7/2019","DateCompleted":"6/23/2019","Comments":"architect synergistic paradigms","Expenses":378,"HoursWorked":7,"Mileage":4,"Donation":974,"JobReferral":2},
{"DateAccepted":"6/12/2018","Volunteers":"Quamba","DateStarted":"3/28/2019","DateCompleted":"4/30/2021","Comments":"redefine compelling metrics","Expenses":176,"HoursWorked":1,"Mileage":39,"Donation":890,"JobReferral":3},
{"DateAccepted":"11/28/2018","Volunteers":"Quinu","DateStarted":"1/3/2019","DateCompleted":"4/14/2020","Comments":"unleash cross-media e-markets","Expenses":888,"HoursWorked":23,"Mileage":45,"Donation":952,"JobReferral":3},
{"DateAccepted":"7/2/2018","Volunteers":"Gevee","DateStarted":"4/13/2019","DateCompleted":"10/22/2021","Comments":"maximize visionary technologies","Expenses":71,"HoursWorked":16,"Mileage":45,"Donation":555,"JobReferral":1},
{"DateAccepted":"2/14/2018","Volunteers":"Twitterwire","DateStarted":"2/21/2019","DateCompleted":"4/21/2020","Comments":"integrate bricks-and-clicks functionalities","Expenses":263,"HoursWorked":10,"Mileage":9,"Donation":59,"JobReferral":2},
{"DateAccepted":"6/14/2018","Volunteers":"Fiveclub","DateStarted":"3/1/2019","DateCompleted":"2/2/2021","Comments":"expedite vertical architectures","Expenses":895,"HoursWorked":21,"Mileage":46,"Donation":396,"JobReferral":2},
{"DateAccepted":"3/19/2018","Volunteers":"Oodoo","DateStarted":"2/17/2019","DateCompleted":"12/6/2020","Comments":"target integrated content","Expenses":739,"HoursWorked":4,"Mileage":36,"Donation":847,"JobReferral":3},
{"DateAccepted":"1/27/2018","Volunteers":"Flashdog","DateStarted":"2/21/2019","DateCompleted":"3/22/2021","Comments":"repurpose cross-platform metrics","Expenses":496,"HoursWorked":10,"Mileage":24,"Donation":299,"JobReferral":1},
{"DateAccepted":"6/18/2018","Volunteers":"LiveZ","DateStarted":"2/16/2019","DateCompleted":"7/25/2021","Comments":"mesh value-added metrics","Expenses":518,"HoursWorked":9,"Mileage":63,"Donation":38,"JobReferral":1},
{"DateAccepted":"4/19/2018","Volunteers":"Voonte","DateStarted":"2/14/2019","DateCompleted":"10/18/2021","Comments":"deliver robust e-markets","Expenses":685,"HoursWorked":5,"Mileage":98,"Donation":136,"JobReferral":1},
{"DateAccepted":"10/20/2018","Volunteers":"Devpoint","DateStarted":"2/8/2019","DateCompleted":"5/5/2020","Comments":"optimize revolutionary action-items","Expenses":939,"HoursWorked":12,"Mileage":15,"Donation":22,"JobReferral":1},
{"DateAccepted":"10/8/2018","Volunteers":"Twinte","DateStarted":"4/3/2019","DateCompleted":"4/24/2021","Comments":"matrix cross-media schemas","Expenses":47,"HoursWorked":17,"Mileage":58,"Donation":765,"JobReferral":2},
{"DateAccepted":"3/13/2018","Volunteers":"Vitz","DateStarted":"3/29/2019","DateCompleted":"11/11/2019","Comments":"redefine cross-platform portals","Expenses":423,"HoursWorked":24,"Mileage":24,"Donation":89,"JobReferral":1},
{"DateAccepted":"8/24/2018","Volunteers":"Vinte","DateStarted":"4/6/2019","DateCompleted":"4/20/2021","Comments":"e-enable revolutionary models","Expenses":329,"HoursWorked":13,"Mileage":86,"Donation":674,"JobReferral":3},
{"DateAccepted":"8/18/2018","Volunteers":"Demizz","DateStarted":"3/21/2019","DateCompleted":"3/16/2021","Comments":"maximize bricks-and-clicks networks","Expenses":929,"HoursWorked":21,"Mileage":63,"Donation":407,"JobReferral":3},
{"DateAccepted":"9/15/2018","Volunteers":"Feedbug","DateStarted":"4/15/2019","DateCompleted":"11/5/2021","Comments":"seize plug-and-play content","Expenses":399,"HoursWorked":21,"Mileage":89,"Donation":942,"JobReferral":3},
{"DateAccepted":"12/6/2018","Volunteers":"Zoomzone","DateStarted":"1/4/2019","DateCompleted":"1/10/2021","Comments":"redefine frictionless models","Expenses":472,"HoursWorked":13,"Mileage":65,"Donation":377,"JobReferral":1},
{"DateAccepted":"5/31/2018","Volunteers":"Janyx","DateStarted":"5/24/2019","DateCompleted":"1/22/2021","Comments":"extend distributed e-services","Expenses":189,"HoursWorked":8,"Mileage":84,"Donation":337,"JobReferral":1},
{"DateAccepted":"2/21/2018","Volunteers":"Wikivu","DateStarted":"4/21/2019","DateCompleted":"12/28/2019","Comments":"unleash B2C solutions","Expenses":132,"HoursWorked":23,"Mileage":71,"Donation":267,"JobReferral":2},
{"DateAccepted":"5/6/2018","Volunteers":"Eamia","DateStarted":"4/6/2019","DateCompleted":"9/14/2021","Comments":"transition viral solutions","Expenses":964,"HoursWorked":7,"Mileage":36,"Donation":155,"JobReferral":3},
{"DateAccepted":"1/4/2018","Volunteers":"Skalith","DateStarted":"5/24/2019","DateCompleted":"4/21/2021","Comments":"extend efficient bandwidth","Expenses":146,"HoursWorked":6,"Mileage":75,"Donation":759,"JobReferral":1},
{"DateAccepted":"4/15/2018","Volunteers":"Blogpad","DateStarted":"4/6/2019","DateCompleted":"1/18/2021","Comments":"disintermediate synergistic deliverables","Expenses":931,"HoursWorked":19,"Mileage":89,"Donation":898,"JobReferral":2},
{"DateAccepted":"7/17/2018","Volunteers":"Aimbu","DateStarted":"5/23/2019","DateCompleted":"7/15/2020","Comments":"engage 24/7 ROI","Expenses":342,"HoursWorked":21,"Mileage":72,"Donation":860,"JobReferral":2},
{"DateAccepted":"6/26/2018","Volunteers":"Yambee","DateStarted":"5/11/2019","DateCompleted":"12/10/2020","Comments":"orchestrate clicks-and-mortar experiences","Expenses":991,"HoursWorked":5,"Mileage":2,"Donation":518,"JobReferral":2},
{"DateAccepted":"3/12/2018","Volunteers":"Vidoo","DateStarted":"5/12/2019","DateCompleted":"10/21/2019","Comments":"envisioneer plug-and-play functionalities","Expenses":293,"HoursWorked":15,"Mileage":53,"Donation":369,"JobReferral":2},
{"DateAccepted":"6/25/2018","Volunteers":"Voomm","DateStarted":"4/30/2019","DateCompleted":"9/29/2020","Comments":"extend cross-platform experiences","Expenses":339,"HoursWorked":24,"Mileage":97,"Donation":905,"JobReferral":3},
{"DateAccepted":"6/22/2018","Volunteers":"Skippad","DateStarted":"2/21/2019","DateCompleted":"8/25/2021","Comments":"benchmark sticky architectures","Expenses":21,"HoursWorked":2,"Mileage":38,"Donation":464,"JobReferral":2},
{"DateAccepted":"10/23/2018","Volunteers":"Mycat","DateStarted":"5/13/2019","DateCompleted":"2/24/2021","Comments":"incentivize compelling mindshare","Expenses":616,"HoursWorked":14,"Mileage":28,"Donation":44,"JobReferral":2},
{"DateAccepted":"2/16/2018","Volunteers":"Oyonder","DateStarted":"5/17/2019","DateCompleted":"6/17/2019","Comments":"monetize collaborative convergence","Expenses":751,"HoursWorked":6,"Mileage":23,"Donation":10,"JobReferral":2},
{"DateAccepted":"10/31/2018","Volunteers":"Lazzy","DateStarted":"4/19/2019","DateCompleted":"6/29/2020","Comments":"reintermediate compelling convergence","Expenses":949,"HoursWorked":8,"Mileage":42,"Donation":182,"JobReferral":1},
{"DateAccepted":"8/2/2018","Volunteers":"Kazu","DateStarted":"2/20/2019","DateCompleted":"8/31/2019","Comments":"whiteboard innovative initiatives","Expenses":2,"HoursWorked":10,"Mileage":79,"Donation":95,"JobReferral":3},
{"DateAccepted":"5/17/2018","Volunteers":"Youbridge","DateStarted":"4/8/2019","DateCompleted":"6/15/2019","Comments":"reintermediate killer systems","Expenses":797,"HoursWorked":3,"Mileage":67,"Donation":632,"JobReferral":3},
{"DateAccepted":"10/31/2018","Volunteers":"Jamia","DateStarted":"5/25/2019","DateCompleted":"11/5/2019","Comments":"enable enterprise technologies","Expenses":966,"HoursWorked":21,"Mileage":91,"Donation":183,"JobReferral":2},
{"DateAccepted":"8/14/2018","Volunteers":"Voomm","DateStarted":"4/6/2019","DateCompleted":"12/11/2021","Comments":"expedite open-source architectures","Expenses":357,"HoursWorked":5,"Mileage":26,"Donation":154,"JobReferral":2},
{"DateAccepted":"5/24/2018","Volunteers":"Twinder","DateStarted":"5/2/2019","DateCompleted":"10/29/2020","Comments":"revolutionize impactful web services","Expenses":145,"HoursWorked":14,"Mileage":8,"Donation":60,"JobReferral":3},
{"DateAccepted":"2/21/2018","Volunteers":"Katz","DateStarted":"5/16/2019","DateCompleted":"5/17/2020","Comments":"transition impactful vortals","Expenses":503,"HoursWorked":1,"Mileage":65,"Donation":113,"JobReferral":2},
{"DateAccepted":"11/22/2018","Volunteers":"Voonder","DateStarted":"1/26/2019","DateCompleted":"5/1/2020","Comments":"synergize cross-platform supply-chains","Expenses":40,"HoursWorked":22,"Mileage":65,"Donation":334,"JobReferral":3},
{"DateAccepted":"1/14/2018","Volunteers":"Jazzy","DateStarted":"2/16/2019","DateCompleted":"12/21/2020","Comments":"generate collaborative deliverables","Expenses":451,"HoursWorked":10,"Mileage":33,"Donation":986,"JobReferral":3},
{"DateAccepted":"4/4/2018","Volunteers":"Fiveclub","DateStarted":"4/17/2019","DateCompleted":"8/3/2019","Comments":"incentivize synergistic users","Expenses":141,"HoursWorked":5,"Mileage":1,"Donation":651,"JobReferral":1},
{"DateAccepted":"9/8/2018","Volunteers":"Fatz","DateStarted":"1/7/2019","DateCompleted":"2/16/2021","Comments":"generate customized web-readiness","Expenses":11,"HoursWorked":3,"Mileage":65,"Donation":135,"JobReferral":1},
{"DateAccepted":"12/16/2018","Volunteers":"Gabvine","DateStarted":"2/27/2019","DateCompleted":"6/6/2020","Comments":"optimize distributed paradigms","Expenses":546,"HoursWorked":11,"Mileage":19,"Donation":780,"JobReferral":3},
{"DateAccepted":"5/22/2018","Volunteers":"Eare","DateStarted":"2/12/2019","DateCompleted":"2/4/2021","Comments":"mesh global e-commerce","Expenses":39,"HoursWorked":16,"Mileage":34,"Donation":201,"JobReferral":3},
{"DateAccepted":"8/31/2018","Volunteers":"Jazzy","DateStarted":"2/13/2019","DateCompleted":"1/7/2021","Comments":"synergize B2C communities","Expenses":41,"HoursWorked":21,"Mileage":36,"Donation":715,"JobReferral":1},
{"DateAccepted":"7/21/2018","Volunteers":"Jayo","DateStarted":"4/4/2019","DateCompleted":"2/10/2021","Comments":"maximize collaborative vortals","Expenses":473,"HoursWorked":9,"Mileage":37,"Donation":331,"JobReferral":3},
{"DateAccepted":"6/23/2018","Volunteers":"Oyope","DateStarted":"2/8/2019","DateCompleted":"8/10/2019","Comments":"enhance ubiquitous methodologies","Expenses":439,"HoursWorked":21,"Mileage":41,"Donation":641,"JobReferral":1},
{"DateAccepted":"6/28/2018","Volunteers":"Tanoodle","DateStarted":"2/17/2019","DateCompleted":"5/3/2020","Comments":"innovate best-of-breed paradigms","Expenses":670,"HoursWorked":3,"Mileage":2,"Donation":914,"JobReferral":2},
{"DateAccepted":"8/20/2018","Volunteers":"Photofeed","DateStarted":"1/24/2019","DateCompleted":"12/13/2020","Comments":"brand magnetic schemas","Expenses":500,"HoursWorked":9,"Mileage":63,"Donation":170,"JobReferral":3},
{"DateAccepted":"12/21/2018","Volunteers":"Yamia","DateStarted":"2/7/2019","DateCompleted":"7/18/2019","Comments":"reintermediate strategic interfaces","Expenses":805,"HoursWorked":15,"Mileage":72,"Donation":674,"JobReferral":2},
{"DateAccepted":"3/2/2018","Volunteers":"Voonte","DateStarted":"1/6/2019","DateCompleted":"8/5/2020","Comments":"recontextualize web-enabled action-items","Expenses":625,"HoursWorked":21,"Mileage":12,"Donation":312,"JobReferral":2},
{"DateAccepted":"9/23/2018","Volunteers":"Flashspan","DateStarted":"5/14/2019","DateCompleted":"5/5/2021","Comments":"scale enterprise deliverables","Expenses":796,"HoursWorked":5,"Mileage":32,"Donation":164,"JobReferral":1},
{"DateAccepted":"12/8/2018","Volunteers":"Cogibox","DateStarted":"2/24/2019","DateCompleted":"8/27/2021","Comments":"whiteboard 24/365 synergies","Expenses":5,"HoursWorked":24,"Mileage":18,"Donation":831,"JobReferral":3},
{"DateAccepted":"2/7/2018","Volunteers":"Eimbee","DateStarted":"4/6/2019","DateCompleted":"12/13/2021","Comments":"synthesize innovative ROI","Expenses":784,"HoursWorked":23,"Mileage":35,"Donation":428,"JobReferral":2},
{"DateAccepted":"10/28/2018","Volunteers":"Dablist","DateStarted":"1/18/2019","DateCompleted":"8/15/2019","Comments":"implement clicks-and-mortar initiatives","Expenses":63,"HoursWorked":17,"Mileage":4,"Donation":365,"JobReferral":2},
{"DateAccepted":"10/27/2018","Volunteers":"Skinder","DateStarted":"2/15/2019","DateCompleted":"12/8/2019","Comments":"architect viral communities","Expenses":70,"HoursWorked":23,"Mileage":70,"Donation":13,"JobReferral":2},
{"DateAccepted":"8/3/2018","Volunteers":"Tagchat","DateStarted":"5/16/2019","DateCompleted":"12/18/2020","Comments":"leverage one-to-one e-markets","Expenses":92,"HoursWorked":16,"Mileage":15,"Donation":241,"JobReferral":1},
{"DateAccepted":"11/4/2018","Volunteers":"Zooxo","DateStarted":"1/13/2019","DateCompleted":"9/27/2019","Comments":"benchmark robust architectures","Expenses":181,"HoursWorked":2,"Mileage":66,"Donation":872,"JobReferral":1},
{"DateAccepted":"7/9/2018","Volunteers":"Linkbuzz","DateStarted":"1/14/2019","DateCompleted":"11/18/2021","Comments":"enhance robust channels","Expenses":236,"HoursWorked":5,"Mileage":56,"Donation":193,"JobReferral":1},
{"DateAccepted":"7/20/2018","Volunteers":"Fadeo","DateStarted":"3/16/2019","DateCompleted":"9/13/2020","Comments":"integrate rich communities","Expenses":636,"HoursWorked":1,"Mileage":5,"Donation":651,"JobReferral":3},
{"DateAccepted":"10/24/2018","Volunteers":"Dablist","DateStarted":"3/7/2019","DateCompleted":"7/21/2021","Comments":"disintermediate best-of-breed supply-chains","Expenses":150,"HoursWorked":23,"Mileage":10,"Donation":733,"JobReferral":3},
{"DateAccepted":"1/7/2018","Volunteers":"Brainverse","DateStarted":"4/30/2019","DateCompleted":"12/11/2020","Comments":"empower efficient platforms","Expenses":109,"HoursWorked":21,"Mileage":58,"Donation":574,"JobReferral":3},
{"DateAccepted":"11/18/2018","Volunteers":"Dabvine","DateStarted":"1/19/2019","DateCompleted":"8/28/2020","Comments":"revolutionize world-class channels","Expenses":533,"HoursWorked":24,"Mileage":81,"Donation":223,"JobReferral":2},
{"DateAccepted":"7/2/2018","Volunteers":"Gabvine","DateStarted":"1/7/2019","DateCompleted":"9/23/2019","Comments":"deploy innovative portals","Expenses":615,"HoursWorked":8,"Mileage":98,"Donation":96,"JobReferral":3},
{"DateAccepted":"6/24/2018","Volunteers":"Quaxo","DateStarted":"1/11/2019","DateCompleted":"1/24/2020","Comments":"streamline revolutionary experiences","Expenses":209,"HoursWorked":24,"Mileage":55,"Donation":82,"JobReferral":3},
{"DateAccepted":"1/19/2018","Volunteers":"Snaptags","DateStarted":"2/14/2019","DateCompleted":"9/29/2019","Comments":"envisioneer vertical platforms","Expenses":544,"HoursWorked":14,"Mileage":79,"Donation":580,"JobReferral":3},
{"DateAccepted":"12/21/2018","Volunteers":"Realcube","DateStarted":"3/29/2019","DateCompleted":"4/9/2020","Comments":"drive integrated models","Expenses":847,"HoursWorked":11,"Mileage":57,"Donation":60,"JobReferral":1},
{"DateAccepted":"9/13/2018","Volunteers":"Aimbo","DateStarted":"3/14/2019","DateCompleted":"7/19/2021","Comments":"e-enable e-business users","Expenses":712,"HoursWorked":23,"Mileage":97,"Donation":534,"JobReferral":1},
{"DateAccepted":"7/30/2018","Volunteers":"Flashpoint","DateStarted":"4/18/2019","DateCompleted":"10/10/2019","Comments":"syndicate strategic partnerships","Expenses":32,"HoursWorked":19,"Mileage":19,"Donation":597,"JobReferral":2},
{"DateAccepted":"8/10/2018","Volunteers":"Chatterpoint","DateStarted":"1/20/2019","DateCompleted":"3/31/2020","Comments":"strategize virtual technologies","Expenses":977,"HoursWorked":24,"Mileage":100,"Donation":637,"JobReferral":1},
{"DateAccepted":"7/30/2018","Volunteers":"Wordware","DateStarted":"3/11/2019","DateCompleted":"5/15/2020","Comments":"seize open-source e-business","Expenses":839,"HoursWorked":3,"Mileage":69,"Donation":784,"JobReferral":3},
{"DateAccepted":"3/22/2018","Volunteers":"Dablist","DateStarted":"4/25/2019","DateCompleted":"1/1/2020","Comments":"whiteboard leading-edge niches","Expenses":167,"HoursWorked":18,"Mileage":65,"Donation":384,"JobReferral":3},
{"DateAccepted":"6/8/2018","Volunteers":"Photobug","DateStarted":"5/28/2019","DateCompleted":"12/15/2020","Comments":"innovate out-of-the-box metrics","Expenses":445,"HoursWorked":17,"Mileage":3,"Donation":47,"JobReferral":1},
{"DateAccepted":"6/25/2018","Volunteers":"Vitz","DateStarted":"3/14/2019","DateCompleted":"12/14/2020","Comments":"productize distributed schemas","Expenses":881,"HoursWorked":10,"Mileage":97,"Donation":557,"JobReferral":2},
{"DateAccepted":"6/12/2018","Volunteers":"Trilith","DateStarted":"4/1/2019","DateCompleted":"6/21/2019","Comments":"implement dynamic solutions","Expenses":619,"HoursWorked":7,"Mileage":69,"Donation":673,"JobReferral":3},
{"DateAccepted":"4/15/2018","Volunteers":"Quatz","DateStarted":"4/26/2019","DateCompleted":"11/2/2019","Comments":"seize granular markets","Expenses":123,"HoursWorked":13,"Mileage":32,"Donation":322,"JobReferral":2},
{"DateAccepted":"12/21/2018","Volunteers":"Browsebug","DateStarted":"5/7/2019","DateCompleted":"10/31/2019","Comments":"redefine plug-and-play initiatives","Expenses":98,"HoursWorked":7,"Mileage":78,"Donation":767,"JobReferral":2},
{"DateAccepted":"2/9/2018","Volunteers":"Youtags","DateStarted":"4/15/2019","DateCompleted":"11/3/2020","Comments":"whiteboard one-to-one bandwidth","Expenses":444,"HoursWorked":12,"Mileage":39,"Donation":947,"JobReferral":1},
{"DateAccepted":"11/2/2018","Volunteers":"Mynte","DateStarted":"3/31/2019","DateCompleted":"1/28/2020","Comments":"revolutionize front-end communities","Expenses":838,"HoursWorked":21,"Mileage":100,"Donation":601,"JobReferral":1},
{"DateAccepted":"11/15/2018","Volunteers":"Twiyo","DateStarted":"1/29/2019","DateCompleted":"7/15/2021","Comments":"drive wireless vortals","Expenses":894,"HoursWorked":1,"Mileage":66,"Donation":918,"JobReferral":3},
{"DateAccepted":"10/21/2018","Volunteers":"Gigazoom","DateStarted":"1/8/2019","DateCompleted":"11/7/2020","Comments":"empower collaborative platforms","Expenses":45,"HoursWorked":3,"Mileage":53,"Donation":777,"JobReferral":1},
{"DateAccepted":"12/14/2018","Volunteers":"Tekfly","DateStarted":"5/12/2019","DateCompleted":"7/17/2021","Comments":"empower wireless partnerships","Expenses":780,"HoursWorked":23,"Mileage":28,"Donation":594,"JobReferral":2},
{"DateAccepted":"7/12/2018","Volunteers":"Shufflester","DateStarted":"1/2/2019","DateCompleted":"7/13/2021","Comments":"productize seamless bandwidth","Expenses":864,"HoursWorked":9,"Mileage":31,"Donation":536,"JobReferral":3},
{"DateAccepted":"6/12/2018","Volunteers":"Trunyx","DateStarted":"4/12/2019","DateCompleted":"1/26/2021","Comments":"unleash sexy mindshare","Expenses":736,"HoursWorked":9,"Mileage":22,"Donation":670,"JobReferral":3},
{"DateAccepted":"5/8/2018","Volunteers":"Realmix","DateStarted":"1/10/2019","DateCompleted":"11/15/2019","Comments":"implement cross-platform e-business","Expenses":551,"HoursWorked":15,"Mileage":90,"Donation":621,"JobReferral":3},
{"DateAccepted":"7/26/2018","Volunteers":"Babbleblab","DateStarted":"4/2/2019","DateCompleted":"5/18/2021","Comments":"recontextualize collaborative experiences","Expenses":606,"HoursWorked":11,"Mileage":73,"Donation":201,"JobReferral":1},
{"DateAccepted":"3/6/2018","Volunteers":"Linkbuzz","DateStarted":"1/13/2019","DateCompleted":"3/4/2021","Comments":"enhance end-to-end communities","Expenses":574,"HoursWorked":10,"Mileage":43,"Donation":459,"JobReferral":2},
{"DateAccepted":"4/19/2018","Volunteers":"Trupe","DateStarted":"5/8/2019","DateCompleted":"1/10/2020","Comments":"engineer granular e-commerce","Expenses":605,"HoursWorked":5,"Mileage":4,"Donation":184,"JobReferral":1},
{"DateAccepted":"1/5/2018","Volunteers":"Demivee","DateStarted":"3/2/2019","DateCompleted":"10/6/2021","Comments":"e-enable plug-and-play convergence","Expenses":795,"HoursWorked":5,"Mileage":82,"Donation":652,"JobReferral":3},
{"DateAccepted":"2/14/2018","Volunteers":"Aibox","DateStarted":"3/25/2019","DateCompleted":"10/21/2019","Comments":"recontextualize one-to-one solutions","Expenses":956,"HoursWorked":2,"Mileage":35,"Donation":193,"JobReferral":1},
{"DateAccepted":"8/21/2018","Volunteers":"Demizz","DateStarted":"1/26/2019","DateCompleted":"4/26/2021","Comments":"exploit cross-media paradigms","Expenses":431,"HoursWorked":13,"Mileage":20,"Donation":491,"JobReferral":3},
{"DateAccepted":"4/13/2018","Volunteers":"Buzzster","DateStarted":"2/26/2019","DateCompleted":"10/21/2021","Comments":"deliver end-to-end e-business","Expenses":506,"HoursWorked":5,"Mileage":7,"Donation":883,"JobReferral":2},
{"DateAccepted":"3/9/2018","Volunteers":"Jabbersphere","DateStarted":"4/5/2019","DateCompleted":"12/31/2019","Comments":"innovate visionary networks","Expenses":241,"HoursWorked":22,"Mileage":48,"Donation":776,"JobReferral":2},
{"DateAccepted":"4/11/2018","Volunteers":"Skynoodle","DateStarted":"1/30/2019","DateCompleted":"5/23/2020","Comments":"leverage B2B supply-chains","Expenses":86,"HoursWorked":13,"Mileage":43,"Donation":656,"JobReferral":1},
{"DateAccepted":"12/13/2018","Volunteers":"Brainsphere","DateStarted":"1/28/2019","DateCompleted":"7/29/2019","Comments":"envisioneer strategic metrics","Expenses":655,"HoursWorked":21,"Mileage":16,"Donation":872,"JobReferral":1},
{"DateAccepted":"12/16/2018","Volunteers":"Dabfeed","DateStarted":"4/19/2019","DateCompleted":"11/13/2020","Comments":"engage revolutionary mindshare","Expenses":212,"HoursWorked":4,"Mileage":60,"Donation":506,"JobReferral":1},
{"DateAccepted":"8/25/2018","Volunteers":"Roomm","DateStarted":"2/19/2019","DateCompleted":"1/8/2021","Comments":"enable back-end methodologies","Expenses":401,"HoursWorked":23,"Mileage":20,"Donation":562,"JobReferral":3},
{"DateAccepted":"3/27/2018","Volunteers":"Edgepulse","DateStarted":"1/18/2019","DateCompleted":"3/6/2020","Comments":"extend global experiences","Expenses":344,"HoursWorked":6,"Mileage":2,"Donation":674,"JobReferral":2},
{"DateAccepted":"1/15/2018","Volunteers":"Devify","DateStarted":"3/21/2019","DateCompleted":"8/26/2021","Comments":"iterate viral functionalities","Expenses":284,"HoursWorked":14,"Mileage":27,"Donation":748,"JobReferral":2},
{"DateAccepted":"8/24/2018","Volunteers":"Wikivu","DateStarted":"2/19/2019","DateCompleted":"10/22/2019","Comments":"architect vertical portals","Expenses":258,"HoursWorked":14,"Mileage":88,"Donation":787,"JobReferral":1},
{"DateAccepted":"6/1/2018","Volunteers":"Trudeo","DateStarted":"5/28/2019","DateCompleted":"6/12/2021","Comments":"benchmark out-of-the-box schemas","Expenses":41,"HoursWorked":23,"Mileage":26,"Donation":320,"JobReferral":1},
{"DateAccepted":"9/12/2018","Volunteers":"Fliptune","DateStarted":"2/9/2019","DateCompleted":"5/9/2021","Comments":"empower global relationships","Expenses":155,"HoursWorked":7,"Mileage":26,"Donation":889,"JobReferral":2},
{"DateAccepted":"6/6/2018","Volunteers":"Dablist","DateStarted":"2/14/2019","DateCompleted":"8/11/2020","Comments":"deliver end-to-end architectures","Expenses":1000,"HoursWorked":16,"Mileage":22,"Donation":565,"JobReferral":2},
{"DateAccepted":"4/1/2018","Volunteers":"Realmix","DateStarted":"4/9/2019","DateCompleted":"5/3/2020","Comments":"leverage collaborative web-readiness","Expenses":493,"HoursWorked":20,"Mileage":78,"Donation":566,"JobReferral":2},
{"DateAccepted":"9/15/2018","Volunteers":"Brainsphere","DateStarted":"4/11/2019","DateCompleted":"11/27/2019","Comments":"repurpose revolutionary systems","Expenses":85,"HoursWorked":3,"Mileage":90,"Donation":640,"JobReferral":3},
{"DateAccepted":"9/5/2018","Volunteers":"Wikizz","DateStarted":"2/22/2019","DateCompleted":"9/9/2019","Comments":"exploit global e-business","Expenses":362,"HoursWorked":3,"Mileage":37,"Donation":341,"JobReferral":1},
{"DateAccepted":"9/24/2018","Volunteers":"Oyope","DateStarted":"3/28/2019","DateCompleted":"5/30/2021","Comments":"utilize turn-key synergies","Expenses":746,"HoursWorked":22,"Mileage":4,"Donation":356,"JobReferral":3},
{"DateAccepted":"6/9/2018","Volunteers":"Quaxo","DateStarted":"2/16/2019","DateCompleted":"10/3/2019","Comments":"whiteboard magnetic interfaces","Expenses":933,"HoursWorked":2,"Mileage":48,"Donation":838,"JobReferral":3},
{"DateAccepted":"12/23/2018","Volunteers":"Jabbersphere","DateStarted":"3/30/2019","DateCompleted":"7/29/2021","Comments":"morph granular e-business","Expenses":148,"HoursWorked":24,"Mileage":69,"Donation":480,"JobReferral":2},
{"DateAccepted":"5/25/2018","Volunteers":"Skippad","DateStarted":"4/11/2019","DateCompleted":"4/18/2020","Comments":"innovate mission-critical technologies","Expenses":60,"HoursWorked":23,"Mileage":71,"Donation":753,"JobReferral":3},
{"DateAccepted":"5/25/2018","Volunteers":"Wikivu","DateStarted":"2/9/2019","DateCompleted":"8/12/2019","Comments":"engineer one-to-one channels","Expenses":842,"HoursWorked":17,"Mileage":87,"Donation":550,"JobReferral":3},
{"DateAccepted":"7/20/2018","Volunteers":"Topicstorm","DateStarted":"4/9/2019","DateCompleted":"3/29/2021","Comments":"leverage revolutionary paradigms","Expenses":48,"HoursWorked":2,"Mileage":64,"Donation":809,"JobReferral":3},
{"DateAccepted":"10/2/2018","Volunteers":"Yozio","DateStarted":"5/20/2019","DateCompleted":"3/26/2021","Comments":"streamline B2C methodologies","Expenses":875,"HoursWorked":7,"Mileage":72,"Donation":294,"JobReferral":2},
{"DateAccepted":"7/17/2018","Volunteers":"Dabfeed","DateStarted":"5/11/2019","DateCompleted":"12/28/2021","Comments":"cultivate end-to-end interfaces","Expenses":544,"HoursWorked":6,"Mileage":56,"Donation":732,"JobReferral":1},
{"DateAccepted":"12/22/2018","Volunteers":"Mycat","DateStarted":"3/24/2019","DateCompleted":"9/30/2021","Comments":"disintermediate plug-and-play e-tailers","Expenses":741,"HoursWorked":8,"Mileage":79,"Donation":46,"JobReferral":1},
{"DateAccepted":"11/22/2018","Volunteers":"Quamba","DateStarted":"1/17/2019","DateCompleted":"12/22/2019","Comments":"deploy bricks-and-clicks solutions","Expenses":500,"HoursWorked":24,"Mileage":23,"Donation":290,"JobReferral":2},
{"DateAccepted":"9/7/2018","Volunteers":"Mudo","DateStarted":"2/18/2019","DateCompleted":"8/28/2021","Comments":"embrace wireless eyeballs","Expenses":818,"HoursWorked":16,"Mileage":5,"Donation":506,"JobReferral":3},
{"DateAccepted":"10/27/2018","Volunteers":"Wikibox","DateStarted":"3/29/2019","DateCompleted":"1/30/2021","Comments":"target world-class architectures","Expenses":582,"HoursWorked":17,"Mileage":55,"Donation":95,"JobReferral":1},
{"DateAccepted":"7/17/2018","Volunteers":"Jabberbean","DateStarted":"4/7/2019","DateCompleted":"1/13/2021","Comments":"embrace global web-readiness","Expenses":943,"HoursWorked":9,"Mileage":77,"Donation":671,"JobReferral":1},
{"DateAccepted":"9/18/2018","Volunteers":"Jayo","DateStarted":"4/16/2019","DateCompleted":"10/9/2019","Comments":"unleash impactful markets","Expenses":22,"HoursWorked":21,"Mileage":41,"Donation":421,"JobReferral":1},
{"DateAccepted":"10/23/2018","Volunteers":"Yabox","DateStarted":"5/9/2019","DateCompleted":"12/20/2019","Comments":"revolutionize compelling relationships","Expenses":749,"HoursWorked":13,"Mileage":66,"Donation":964,"JobReferral":1},
{"DateAccepted":"11/6/2018","Volunteers":"Jazzy","DateStarted":"3/2/2019","DateCompleted":"6/1/2021","Comments":"benchmark cutting-edge content","Expenses":541,"HoursWorked":23,"Mileage":92,"Donation":793,"JobReferral":2},
{"DateAccepted":"3/14/2018","Volunteers":"Avaveo","DateStarted":"2/3/2019","DateCompleted":"11/6/2019","Comments":"exploit sexy communities","Expenses":887,"HoursWorked":1,"Mileage":40,"Donation":987,"JobReferral":1},
{"DateAccepted":"10/13/2018","Volunteers":"Digitube","DateStarted":"4/2/2019","DateCompleted":"12/27/2019","Comments":"synthesize best-of-breed technologies","Expenses":205,"HoursWorked":8,"Mileage":81,"Donation":310,"JobReferral":2},
{"DateAccepted":"10/1/2018","Volunteers":"Jaxspan","DateStarted":"1/27/2019","DateCompleted":"8/25/2020","Comments":"whiteboard real-time networks","Expenses":424,"HoursWorked":9,"Mileage":3,"Donation":686,"JobReferral":3},
{"DateAccepted":"5/5/2018","Volunteers":"Divanoodle","DateStarted":"4/13/2019","DateCompleted":"8/10/2021","Comments":"orchestrate B2B web-readiness","Expenses":846,"HoursWorked":14,"Mileage":60,"Donation":892,"JobReferral":2},
{"DateAccepted":"2/21/2018","Volunteers":"Wikizz","DateStarted":"5/15/2019","DateCompleted":"8/23/2019","Comments":"matrix clicks-and-mortar synergies","Expenses":837,"HoursWorked":19,"Mileage":63,"Donation":713,"JobReferral":1},
{"DateAccepted":"12/13/2018","Volunteers":"Meevee","DateStarted":"5/8/2019","DateCompleted":"7/12/2021","Comments":"incentivize front-end ROI","Expenses":104,"HoursWorked":19,"Mileage":49,"Donation":110,"JobReferral":3},
{"DateAccepted":"2/14/2018","Volunteers":"Skipfire","DateStarted":"5/16/2019","DateCompleted":"2/25/2020","Comments":"utilize best-of-breed technologies","Expenses":225,"HoursWorked":1,"Mileage":64,"Donation":582,"JobReferral":3},
{"DateAccepted":"12/27/2018","Volunteers":"Wordify","DateStarted":"3/25/2019","DateCompleted":"11/8/2021","Comments":"incubate holistic eyeballs","Expenses":117,"HoursWorked":23,"Mileage":7,"Donation":81,"JobReferral":1},
{"DateAccepted":"5/3/2018","Volunteers":"Flipstorm","DateStarted":"2/3/2019","DateCompleted":"6/2/2020","Comments":"revolutionize innovative partnerships","Expenses":492,"HoursWorked":6,"Mileage":64,"Donation":468,"JobReferral":3},
{"DateAccepted":"4/28/2018","Volunteers":"Meembee","DateStarted":"4/22/2019","DateCompleted":"9/14/2021","Comments":"benchmark holistic applications","Expenses":468,"HoursWorked":2,"Mileage":5,"Donation":73,"JobReferral":3},
{"DateAccepted":"4/6/2018","Volunteers":"Jaxbean","DateStarted":"3/18/2019","DateCompleted":"11/3/2019","Comments":"syndicate end-to-end platforms","Expenses":284,"HoursWorked":16,"Mileage":48,"Donation":696,"JobReferral":3},
{"DateAccepted":"10/22/2018","Volunteers":"Dynabox","DateStarted":"5/26/2019","DateCompleted":"10/7/2020","Comments":"iterate compelling niches","Expenses":863,"HoursWorked":12,"Mileage":77,"Donation":20,"JobReferral":3},
{"DateAccepted":"12/29/2018","Volunteers":"Rhybox","DateStarted":"3/2/2019","DateCompleted":"5/20/2021","Comments":"exploit bricks-and-clicks e-business","Expenses":530,"HoursWorked":22,"Mileage":41,"Donation":37,"JobReferral":2},
{"DateAccepted":"12/14/2018","Volunteers":"Wordify","DateStarted":"2/6/2019","DateCompleted":"4/26/2020","Comments":"grow real-time solutions","Expenses":607,"HoursWorked":6,"Mileage":29,"Donation":644,"JobReferral":3},
{"DateAccepted":"12/29/2018","Volunteers":"Ainyx","DateStarted":"1/10/2019","DateCompleted":"10/28/2019","Comments":"reinvent holistic synergies","Expenses":522,"HoursWorked":14,"Mileage":48,"Donation":662,"JobReferral":2},
{"DateAccepted":"11/21/2018","Volunteers":"Vidoo","DateStarted":"2/21/2019","DateCompleted":"2/15/2021","Comments":"productize world-class eyeballs","Expenses":255,"HoursWorked":2,"Mileage":93,"Donation":786,"JobReferral":1},
{"DateAccepted":"12/29/2018","Volunteers":"Chatterbridge","DateStarted":"2/9/2019","DateCompleted":"12/15/2019","Comments":"syndicate rich ROI","Expenses":685,"HoursWorked":16,"Mileage":46,"Donation":112,"JobReferral":3},
{"DateAccepted":"11/13/2018","Volunteers":"Skippad","DateStarted":"3/10/2019","DateCompleted":"5/28/2021","Comments":"whiteboard interactive functionalities","Expenses":585,"HoursWorked":14,"Mileage":3,"Donation":977,"JobReferral":3},
{"DateAccepted":"5/13/2018","Volunteers":"Thoughtworks","DateStarted":"3/18/2019","DateCompleted":"5/18/2020","Comments":"streamline 24/7 networks","Expenses":25,"HoursWorked":9,"Mileage":11,"Donation":58,"JobReferral":3},
{"DateAccepted":"6/4/2018","Volunteers":"Skinte","DateStarted":"3/22/2019","DateCompleted":"1/12/2021","Comments":"empower revolutionary functionalities","Expenses":358,"HoursWorked":12,"Mileage":28,"Donation":229,"JobReferral":3},
{"DateAccepted":"3/27/2018","Volunteers":"Yakitri","DateStarted":"3/19/2019","DateCompleted":"7/27/2020","Comments":"target rich bandwidth","Expenses":853,"HoursWorked":23,"Mileage":51,"Donation":226,"JobReferral":2},
{"DateAccepted":"5/9/2018","Volunteers":"Latz","DateStarted":"3/5/2019","DateCompleted":"7/31/2019","Comments":"brand one-to-one schemas","Expenses":928,"HoursWorked":12,"Mileage":19,"Donation":674,"JobReferral":1},
{"DateAccepted":"12/2/2018","Volunteers":"Zava","DateStarted":"2/8/2019","DateCompleted":"8/8/2019","Comments":"engage global bandwidth","Expenses":730,"HoursWorked":20,"Mileage":2,"Donation":104,"JobReferral":1},
{"DateAccepted":"7/22/2018","Volunteers":"Topiclounge","DateStarted":"2/7/2019","DateCompleted":"9/27/2019","Comments":"transform dot-com action-items","Expenses":51,"HoursWorked":20,"Mileage":46,"Donation":574,"JobReferral":1},
{"DateAccepted":"2/24/2018","Volunteers":"Zoomzone","DateStarted":"3/31/2019","DateCompleted":"3/20/2020","Comments":"incubate interactive infrastructures","Expenses":639,"HoursWorked":18,"Mileage":69,"Donation":28,"JobReferral":2},
{"DateAccepted":"2/2/2018","Volunteers":"Skimia","DateStarted":"4/19/2019","DateCompleted":"3/3/2020","Comments":"target strategic synergies","Expenses":677,"HoursWorked":4,"Mileage":81,"Donation":756,"JobReferral":3},
{"DateAccepted":"7/15/2018","Volunteers":"Jabbertype","DateStarted":"5/18/2019","DateCompleted":"11/16/2020","Comments":"grow viral e-markets","Expenses":146,"HoursWorked":1,"Mileage":55,"Donation":706,"JobReferral":1},
{"DateAccepted":"9/30/2018","Volunteers":"Vidoo","DateStarted":"4/25/2019","DateCompleted":"6/19/2021","Comments":"streamline ubiquitous niches","Expenses":678,"HoursWorked":22,"Mileage":91,"Donation":669,"JobReferral":1},
{"DateAccepted":"7/20/2018","Volunteers":"Leenti","DateStarted":"2/9/2019","DateCompleted":"6/13/2019","Comments":"implement 24/365 e-services","Expenses":446,"HoursWorked":10,"Mileage":8,"Donation":239,"JobReferral":1},
{"DateAccepted":"4/20/2018","Volunteers":"Babbleopia","DateStarted":"4/16/2019","DateCompleted":"8/19/2019","Comments":"engage granular mindshare","Expenses":72,"HoursWorked":22,"Mileage":83,"Donation":847,"JobReferral":2},
{"DateAccepted":"12/7/2018","Volunteers":"JumpXS","DateStarted":"5/22/2019","DateCompleted":"11/16/2020","Comments":"generate leading-edge initiatives","Expenses":359,"HoursWorked":5,"Mileage":94,"Donation":125,"JobReferral":1},
{"DateAccepted":"4/27/2018","Volunteers":"Demivee","DateStarted":"2/23/2019","DateCompleted":"11/27/2020","Comments":"transform leading-edge networks","Expenses":923,"HoursWorked":20,"Mileage":6,"Donation":898,"JobReferral":2},
{"DateAccepted":"6/13/2018","Volunteers":"Voolia","DateStarted":"4/4/2019","DateCompleted":"5/10/2020","Comments":"unleash transparent channels","Expenses":178,"HoursWorked":16,"Mileage":33,"Donation":986,"JobReferral":3},
{"DateAccepted":"12/2/2018","Volunteers":"Skipfire","DateStarted":"3/19/2019","DateCompleted":"10/16/2019","Comments":"harness visionary vortals","Expenses":293,"HoursWorked":15,"Mileage":87,"Donation":1000,"JobReferral":3},
{"DateAccepted":"12/3/2018","Volunteers":"Centidel","DateStarted":"2/1/2019","DateCompleted":"11/18/2021","Comments":"synthesize extensible networks","Expenses":700,"HoursWorked":12,"Mileage":52,"Donation":197,"JobReferral":1},
{"DateAccepted":"1/31/2018","Volunteers":"Roodel","DateStarted":"5/20/2019","DateCompleted":"7/16/2019","Comments":"aggregate magnetic solutions","Expenses":570,"HoursWorked":24,"Mileage":77,"Donation":514,"JobReferral":3},
{"DateAccepted":"7/2/2018","Volunteers":"Jabberstorm","DateStarted":"2/6/2019","DateCompleted":"10/18/2021","Comments":"leverage out-of-the-box supply-chains","Expenses":566,"HoursWorked":16,"Mileage":56,"Donation":146,"JobReferral":2},
{"DateAccepted":"12/11/2018","Volunteers":"Tagcat","DateStarted":"1/17/2019","DateCompleted":"6/26/2019","Comments":"facilitate revolutionary eyeballs","Expenses":56,"HoursWorked":8,"Mileage":71,"Donation":548,"JobReferral":1},
{"DateAccepted":"5/15/2018","Volunteers":"Feedfire","DateStarted":"5/12/2019","DateCompleted":"10/16/2019","Comments":"cultivate strategic ROI","Expenses":346,"HoursWorked":10,"Mileage":97,"Donation":687,"JobReferral":1},
{"DateAccepted":"2/17/2018","Volunteers":"Skilith","DateStarted":"1/5/2019","DateCompleted":"6/7/2021","Comments":"brand impactful paradigms","Expenses":312,"HoursWorked":4,"Mileage":40,"Donation":5,"JobReferral":3},
{"DateAccepted":"4/24/2018","Volunteers":"Feedbug","DateStarted":"2/14/2019","DateCompleted":"7/21/2021","Comments":"synergize vertical networks","Expenses":447,"HoursWorked":19,"Mileage":79,"Donation":205,"JobReferral":2},
{"DateAccepted":"10/23/2018","Volunteers":"Brightbean","DateStarted":"1/31/2019","DateCompleted":"3/8/2021","Comments":"transition best-of-breed convergence","Expenses":221,"HoursWorked":14,"Mileage":58,"Donation":466,"JobReferral":3},
{"DateAccepted":"8/3/2018","Volunteers":"Flashset","DateStarted":"5/13/2019","DateCompleted":"4/4/2021","Comments":"drive cross-media niches","Expenses":230,"HoursWorked":17,"Mileage":63,"Donation":929,"JobReferral":3},
{"DateAccepted":"2/13/2018","Volunteers":"Jaxnation","DateStarted":"1/22/2019","DateCompleted":"4/11/2021","Comments":"evolve best-of-breed users","Expenses":763,"HoursWorked":8,"Mileage":66,"Donation":280,"JobReferral":3},
{"DateAccepted":"4/28/2018","Volunteers":"Edgepulse","DateStarted":"3/9/2019","DateCompleted":"4/11/2020","Comments":"repurpose proactive e-tailers","Expenses":940,"HoursWorked":4,"Mileage":61,"Donation":811,"JobReferral":2},
{"DateAccepted":"8/18/2018","Volunteers":"Voomm","DateStarted":"5/24/2019","DateCompleted":"1/8/2021","Comments":"whiteboard synergistic platforms","Expenses":348,"HoursWorked":5,"Mileage":60,"Donation":650,"JobReferral":2},
{"DateAccepted":"10/19/2018","Volunteers":"Shufflester","DateStarted":"1/5/2019","DateCompleted":"12/8/2021","Comments":"enable mission-critical portals","Expenses":194,"HoursWorked":21,"Mileage":99,"Donation":208,"JobReferral":1},
{"DateAccepted":"4/27/2018","Volunteers":"Eire","DateStarted":"5/26/2019","DateCompleted":"11/8/2021","Comments":"reintermediate sexy partnerships","Expenses":868,"HoursWorked":9,"Mileage":82,"Donation":507,"JobReferral":1},
{"DateAccepted":"10/18/2018","Volunteers":"Linkbuzz","DateStarted":"1/4/2019","DateCompleted":"1/23/2021","Comments":"aggregate clicks-and-mortar initiatives","Expenses":166,"HoursWorked":6,"Mileage":59,"Donation":84,"JobReferral":2},
{"DateAccepted":"5/4/2018","Volunteers":"Minyx","DateStarted":"1/22/2019","DateCompleted":"5/29/2021","Comments":"engage ubiquitous content","Expenses":651,"HoursWorked":7,"Mileage":27,"Donation":897,"JobReferral":2},
{"DateAccepted":"1/28/2018","Volunteers":"Photolist","DateStarted":"5/16/2019","DateCompleted":"8/21/2019","Comments":"empower global functionalities","Expenses":971,"HoursWorked":13,"Mileage":7,"Donation":755,"JobReferral":1},
{"DateAccepted":"8/12/2018","Volunteers":"Buzzdog","DateStarted":"3/21/2019","DateCompleted":"1/9/2020","Comments":"optimize synergistic schemas","Expenses":449,"HoursWorked":1,"Mileage":2,"Donation":317,"JobReferral":2},
{"DateAccepted":"3/23/2018","Volunteers":"Edgeclub","DateStarted":"5/5/2019","DateCompleted":"1/7/2021","Comments":"empower end-to-end e-markets","Expenses":836,"HoursWorked":22,"Mileage":76,"Donation":54,"JobReferral":1},
{"DateAccepted":"3/9/2018","Volunteers":"Tanoodle","DateStarted":"5/22/2019","DateCompleted":"9/25/2019","Comments":"architect next-generation users","Expenses":807,"HoursWorked":12,"Mileage":63,"Donation":213,"JobReferral":2},
{"DateAccepted":"9/27/2018","Volunteers":"Yakijo","DateStarted":"3/8/2019","DateCompleted":"2/8/2020","Comments":"revolutionize dynamic niches","Expenses":821,"HoursWorked":4,"Mileage":36,"Donation":470,"JobReferral":1},
{"DateAccepted":"3/13/2018","Volunteers":"Rooxo","DateStarted":"5/5/2019","DateCompleted":"3/7/2020","Comments":"expedite transparent models","Expenses":952,"HoursWorked":6,"Mileage":97,"Donation":178,"JobReferral":1},
{"DateAccepted":"10/2/2018","Volunteers":"Oodoo","DateStarted":"4/16/2019","DateCompleted":"12/27/2019","Comments":"facilitate real-time infrastructures","Expenses":350,"HoursWorked":17,"Mileage":14,"Donation":67,"JobReferral":2},
{"DateAccepted":"1/15/2018","Volunteers":"Brainverse","DateStarted":"1/12/2019","DateCompleted":"7/15/2020","Comments":"synergize granular experiences","Expenses":407,"HoursWorked":21,"Mileage":94,"Donation":885,"JobReferral":3},
{"DateAccepted":"1/21/2018","Volunteers":"Jayo","DateStarted":"5/28/2019","DateCompleted":"11/15/2019","Comments":"synthesize killer systems","Expenses":895,"HoursWorked":5,"Mileage":49,"Donation":960,"JobReferral":1},
{"DateAccepted":"12/16/2018","Volunteers":"Realbuzz","DateStarted":"2/12/2019","DateCompleted":"1/27/2020","Comments":"synthesize e-business web-readiness","Expenses":3,"HoursWorked":17,"Mileage":11,"Donation":562,"JobReferral":3},
{"DateAccepted":"8/11/2018","Volunteers":"Skyvu","DateStarted":"5/8/2019","DateCompleted":"12/23/2021","Comments":"mesh vertical users","Expenses":131,"HoursWorked":17,"Mileage":70,"Donation":17,"JobReferral":3},
{"DateAccepted":"12/2/2018","Volunteers":"Centimia","DateStarted":"4/26/2019","DateCompleted":"12/30/2021","Comments":"productize impactful ROI","Expenses":922,"HoursWorked":24,"Mileage":80,"Donation":431,"JobReferral":2}]