[{"TypeOfOrder":4,"ReqDescription":"Span","DateOfRequest":"2/23/2018","JobStatus":2},
{"TypeOfOrder":5,"ReqDescription":"Matsoft","DateOfRequest":"1/27/2018","JobStatus":1},
{"TypeOfOrder":0,"ReqDescription":"Bitchip","DateOfRequest":"10/17/2018","JobStatus":0},
{"TypeOfOrder":6,"ReqDescription":"Redhold","DateOfRequest":"12/13/2018","JobStatus":1},
{"TypeOfOrder":2,"ReqDescription":"Daltfresh","DateOfRequest":"11/20/2018","JobStatus":0},
{"TypeOfOrder":1,"ReqDescription":"Namfix","DateOfRequest":"1/2/2018","JobStatus":3},
{"TypeOfOrder":6,"ReqDescription":"Veribet","DateOfRequest":"8/6/2018","JobStatus":3},
{"TypeOfOrder":2,"ReqDescription":"Temp","DateOfRequest":"3/11/2018","JobStatus":1},
{"TypeOfOrder":4,"ReqDescription":"Namfix","DateOfRequest":"8/9/2018","JobStatus":0},
{"TypeOfOrder":2,"ReqDescription":"Treeflex","DateOfRequest":"1/27/2018","JobStatus":3},
{"TypeOfOrder":2,"ReqDescription":"Alphazap","DateOfRequest":"4/8/2018","JobStatus":1},
{"TypeOfOrder":4,"ReqDescription":"Flexidy","DateOfRequest":"7/13/2018","JobStatus":2},
{"TypeOfOrder":7,"ReqDescription":"It","DateOfRequest":"11/10/2018","JobStatus":3},
{"TypeOfOrder":1,"ReqDescription":"Transcof","DateOfRequest":"8/27/2018","JobStatus":0},
{"TypeOfOrder":8,"ReqDescription":"Tin","DateOfRequest":"6/11/2018","JobStatus":1},
{"TypeOfOrder":5,"ReqDescription":"Viva","DateOfRequest":"5/24/2018","JobStatus":0},
{"TypeOfOrder":7,"ReqDescription":"Temp","DateOfRequest":"12/23/2018","JobStatus":3},
{"TypeOfOrder":1,"ReqDescription":"Sub-Ex","DateOfRequest":"4/19/2018","JobStatus":1},
{"TypeOfOrder":8,"ReqDescription":"Latlux","DateOfRequest":"1/17/2018","JobStatus":2},
{"TypeOfOrder":0,"ReqDescription":"Tempsoft","DateOfRequest":"4/28/2018","JobStatus":0},
{"TypeOfOrder":1,"ReqDescription":"Ventosanzap","DateOfRequest":"2/24/2018","JobStatus":2},
{"TypeOfOrder":8,"ReqDescription":"Keylex","DateOfRequest":"10/17/2018","JobStatus":0},
{"TypeOfOrder":8,"ReqDescription":"Fix San","DateOfRequest":"8/27/2018","JobStatus":1},
{"TypeOfOrder":6,"ReqDescription":"Job","DateOfRequest":"12/28/2018","JobStatus":1},
{"TypeOfOrder":6,"ReqDescription":"Sonsing","DateOfRequest":"7/21/2018","JobStatus":0},
{"TypeOfOrder":1,"ReqDescription":"Opela","DateOfRequest":"11/12/2018","JobStatus":2},
{"TypeOfOrder":0,"ReqDescription":"Biodex","DateOfRequest":"7/19/2018","JobStatus":1},
{"TypeOfOrder":6,"ReqDescription":"Sonsing","DateOfRequest":"6/17/2018","JobStatus":1},
{"TypeOfOrder":2,"ReqDescription":"Ronstring","DateOfRequest":"8/3/2018","JobStatus":1},
{"TypeOfOrder":4,"ReqDescription":"Gembucket","DateOfRequest":"10/3/2018","JobStatus":2},
{"TypeOfOrder":2,"ReqDescription":"Gembucket","DateOfRequest":"11/27/2018","JobStatus":3},
{"TypeOfOrder":4,"ReqDescription":"Y-Solowarm","DateOfRequest":"1/21/2018","JobStatus":2},
{"TypeOfOrder":4,"ReqDescription":"Trippledex","DateOfRequest":"3/24/2018","JobStatus":0},
{"TypeOfOrder":5,"ReqDescription":"Job","DateOfRequest":"8/3/2018","JobStatus":2},
{"TypeOfOrder":5,"ReqDescription":"Zathin","DateOfRequest":"6/24/2018","JobStatus":2},
{"TypeOfOrder":7,"ReqDescription":"Daltfresh","DateOfRequest":"5/15/2018","JobStatus":2},
{"TypeOfOrder":3,"ReqDescription":"Hatity","DateOfRequest":"7/20/2018","JobStatus":3},
{"TypeOfOrder":2,"ReqDescription":"Voltsillam","DateOfRequest":"11/10/2018","JobStatus":1},
{"TypeOfOrder":5,"ReqDescription":"Sonsing","DateOfRequest":"5/1/2018","JobStatus":1},
{"TypeOfOrder":1,"ReqDescription":"Veribet","DateOfRequest":"11/26/2018","JobStatus":2},
{"TypeOfOrder":5,"ReqDescription":"Otcom","DateOfRequest":"2/8/2018","JobStatus":1},
{"TypeOfOrder":0,"ReqDescription":"Solarbreeze","DateOfRequest":"5/18/2018","JobStatus":3},
{"TypeOfOrder":7,"ReqDescription":"Zontrax","DateOfRequest":"4/5/2018","JobStatus":3},
{"TypeOfOrder":4,"ReqDescription":"Ventosanzap","DateOfRequest":"4/2/2018","JobStatus":2},
{"TypeOfOrder":8,"ReqDescription":"Daltfresh","DateOfRequest":"3/26/2018","JobStatus":0},
{"TypeOfOrder":2,"ReqDescription":"Cardify","DateOfRequest":"12/22/2018","JobStatus":1},
{"TypeOfOrder":7,"ReqDescription":"Regrant","DateOfRequest":"6/17/2018","JobStatus":0},
{"TypeOfOrder":0,"ReqDescription":"Cardguard","DateOfRequest":"9/26/2018","JobStatus":2},
{"TypeOfOrder":7,"ReqDescription":"Trippledex","DateOfRequest":"9/7/2018","JobStatus":1},
{"TypeOfOrder":4,"ReqDescription":"Y-find","DateOfRequest":"7/27/2018","JobStatus":0},
{"TypeOfOrder":2,"ReqDescription":"Hatity","DateOfRequest":"5/8/2018","JobStatus":1},
{"TypeOfOrder":8,"ReqDescription":"Aerified","DateOfRequest":"4/23/2018","JobStatus":3},
{"TypeOfOrder":6,"ReqDescription":"Zoolab","DateOfRequest":"6/30/2018","JobStatus":1},
{"TypeOfOrder":0,"ReqDescription":"Andalax","DateOfRequest":"12/25/2018","JobStatus":2},
{"TypeOfOrder":3,"ReqDescription":"Voyatouch","DateOfRequest":"5/19/2018","JobStatus":3},
{"TypeOfOrder":2,"ReqDescription":"Konklab","DateOfRequest":"4/1/2018","JobStatus":2},
{"TypeOfOrder":7,"ReqDescription":"Vagram","DateOfRequest":"2/22/2018","JobStatus":0},
{"TypeOfOrder":3,"ReqDescription":"Namfix","DateOfRequest":"8/19/2018","JobStatus":1},
{"TypeOfOrder":5,"ReqDescription":"Opela","DateOfRequest":"4/24/2018","JobStatus":3},
{"TypeOfOrder":5,"ReqDescription":"Andalax","DateOfRequest":"8/11/2018","JobStatus":0},
{"TypeOfOrder":0,"ReqDescription":"Veribet","DateOfRequest":"3/13/2018","JobStatus":3},
{"TypeOfOrder":5,"ReqDescription":"Toughjoyfax","DateOfRequest":"5/26/2018","JobStatus":1},
{"TypeOfOrder":5,"ReqDescription":"Ronstring","DateOfRequest":"7/13/2018","JobStatus":3},
{"TypeOfOrder":5,"ReqDescription":"Redhold","DateOfRequest":"10/4/2018","JobStatus":0},
{"TypeOfOrder":6,"ReqDescription":"Andalax","DateOfRequest":"9/9/2018","JobStatus":3},
{"TypeOfOrder":4,"ReqDescription":"Y-find","DateOfRequest":"4/28/2018","JobStatus":2},
{"TypeOfOrder":4,"ReqDescription":"Treeflex","DateOfRequest":"10/2/2018","JobStatus":1},
{"TypeOfOrder":7,"ReqDescription":"Veribet","DateOfRequest":"7/8/2018","JobStatus":3},
{"TypeOfOrder":0,"ReqDescription":"Mat Lam Tam","DateOfRequest":"10/14/2018","JobStatus":2},
{"TypeOfOrder":6,"ReqDescription":"Transcof","DateOfRequest":"6/18/2018","JobStatus":3},
{"TypeOfOrder":4,"ReqDescription":"Pannier","DateOfRequest":"11/16/2018","JobStatus":1},
{"TypeOfOrder":6,"ReqDescription":"Daltfresh","DateOfRequest":"10/14/2018","JobStatus":1},
{"TypeOfOrder":1,"ReqDescription":"Bamity","DateOfRequest":"6/30/2018","JobStatus":2},
{"TypeOfOrder":6,"ReqDescription":"Toughjoyfax","DateOfRequest":"7/25/2018","JobStatus":2},
{"TypeOfOrder":2,"ReqDescription":"Lotlux","DateOfRequest":"8/27/2018","JobStatus":2},
{"TypeOfOrder":2,"ReqDescription":"Treeflex","DateOfRequest":"6/25/2018","JobStatus":0},
{"TypeOfOrder":5,"ReqDescription":"Treeflex","DateOfRequest":"7/4/2018","JobStatus":2},
{"TypeOfOrder":5,"ReqDescription":"Y-Solowarm","DateOfRequest":"11/18/2018","JobStatus":2},
{"TypeOfOrder":8,"ReqDescription":"Alphazap","DateOfRequest":"6/13/2018","JobStatus":3},
{"TypeOfOrder":3,"ReqDescription":"Span","DateOfRequest":"1/18/2018","JobStatus":0},
{"TypeOfOrder":8,"ReqDescription":"Bitwolf","DateOfRequest":"8/5/2018","JobStatus":1},
{"TypeOfOrder":4,"ReqDescription":"Trippledex","DateOfRequest":"6/5/2018","JobStatus":1},
{"TypeOfOrder":2,"ReqDescription":"Fix San","DateOfRequest":"5/10/2018","JobStatus":1},
{"TypeOfOrder":5,"ReqDescription":"Bitchip","DateOfRequest":"4/10/2018","JobStatus":1},
{"TypeOfOrder":8,"ReqDescription":"Sonair","DateOfRequest":"8/4/2018","JobStatus":3},
{"TypeOfOrder":6,"ReqDescription":"Stringtough","DateOfRequest":"4/28/2018","JobStatus":2},
{"TypeOfOrder":3,"ReqDescription":"Lotlux","DateOfRequest":"4/2/2018","JobStatus":2},
{"TypeOfOrder":2,"ReqDescription":"Stringtough","DateOfRequest":"12/19/2018","JobStatus":0},
{"TypeOfOrder":7,"ReqDescription":"Zontrax","DateOfRequest":"9/14/2018","JobStatus":2},
{"TypeOfOrder":5,"ReqDescription":"Voyatouch","DateOfRequest":"8/5/2018","JobStatus":2},
{"TypeOfOrder":2,"ReqDescription":"Sonsing","DateOfRequest":"2/20/2018","JobStatus":1},
{"TypeOfOrder":1,"ReqDescription":"Toughjoyfax","DateOfRequest":"4/11/2018","JobStatus":2},
{"TypeOfOrder":4,"ReqDescription":"Stim","DateOfRequest":"6/27/2018","JobStatus":0},
{"TypeOfOrder":7,"ReqDescription":"Zoolab","DateOfRequest":"4/18/2018","JobStatus":0},
{"TypeOfOrder":3,"ReqDescription":"Zamit","DateOfRequest":"4/5/2018","JobStatus":2},
{"TypeOfOrder":4,"ReqDescription":"Transcof","DateOfRequest":"9/22/2018","JobStatus":0},
{"TypeOfOrder":6,"ReqDescription":"Zontrax","DateOfRequest":"6/27/2018","JobStatus":2},
{"TypeOfOrder":3,"ReqDescription":"Fintone","DateOfRequest":"9/27/2018","JobStatus":3},
{"TypeOfOrder":5,"ReqDescription":"Biodex","DateOfRequest":"7/16/2018","JobStatus":3},
{"TypeOfOrder":4,"ReqDescription":"Tampflex","DateOfRequest":"3/22/2018","JobStatus":2},
{"TypeOfOrder":3,"ReqDescription":"Overhold","DateOfRequest":"12/22/2018","JobStatus":1},
{"TypeOfOrder":3,"ReqDescription":"Keylex","DateOfRequest":"11/5/2018","JobStatus":2},
{"TypeOfOrder":5,"ReqDescription":"Stronghold","DateOfRequest":"5/27/2018","JobStatus":1},
{"TypeOfOrder":3,"ReqDescription":"Cookley","DateOfRequest":"12/9/2018","JobStatus":1},
{"TypeOfOrder":4,"ReqDescription":"Cookley","DateOfRequest":"9/30/2018","JobStatus":2},
{"TypeOfOrder":4,"ReqDescription":"Cardify","DateOfRequest":"6/12/2018","JobStatus":1},
{"TypeOfOrder":2,"ReqDescription":"Temp","DateOfRequest":"10/27/2018","JobStatus":0},
{"TypeOfOrder":5,"ReqDescription":"Fix San","DateOfRequest":"8/13/2018","JobStatus":3},
{"TypeOfOrder":4,"ReqDescription":"Mat Lam Tam","DateOfRequest":"2/22/2018","JobStatus":2},
{"TypeOfOrder":7,"ReqDescription":"Hatity","DateOfRequest":"4/2/2018","JobStatus":0},
{"TypeOfOrder":1,"ReqDescription":"Quo Lux","DateOfRequest":"4/8/2018","JobStatus":1},
{"TypeOfOrder":1,"ReqDescription":"Greenlam","DateOfRequest":"4/2/2018","JobStatus":3},
{"TypeOfOrder":2,"ReqDescription":"Biodex","DateOfRequest":"4/10/2018","JobStatus":0},
{"TypeOfOrder":7,"ReqDescription":"Sonair","DateOfRequest":"3/16/2018","JobStatus":2},
{"TypeOfOrder":2,"ReqDescription":"Fintone","DateOfRequest":"8/9/2018","JobStatus":1},
{"TypeOfOrder":8,"ReqDescription":"Hatity","DateOfRequest":"7/3/2018","JobStatus":0},
{"TypeOfOrder":7,"ReqDescription":"Sub-Ex","DateOfRequest":"8/27/2018","JobStatus":1},
{"TypeOfOrder":6,"ReqDescription":"Tin","DateOfRequest":"12/17/2018","JobStatus":2},
{"TypeOfOrder":8,"ReqDescription":"Prodder","DateOfRequest":"5/29/2018","JobStatus":0},
{"TypeOfOrder":0,"ReqDescription":"Gembucket","DateOfRequest":"8/27/2018","JobStatus":0},
{"TypeOfOrder":0,"ReqDescription":"Kanlam","DateOfRequest":"10/15/2018","JobStatus":2},
{"TypeOfOrder":3,"ReqDescription":"Quo Lux","DateOfRequest":"10/12/2018","JobStatus":0},
{"TypeOfOrder":2,"ReqDescription":"Trippledex","DateOfRequest":"5/29/2018","JobStatus":0},
{"TypeOfOrder":5,"ReqDescription":"Y-Solowarm","DateOfRequest":"9/8/2018","JobStatus":0},
{"TypeOfOrder":3,"ReqDescription":"Transcof","DateOfRequest":"11/11/2018","JobStatus":1},
{"TypeOfOrder":5,"ReqDescription":"Vagram","DateOfRequest":"3/26/2018","JobStatus":1},
{"TypeOfOrder":8,"ReqDescription":"Solarbreeze","DateOfRequest":"1/11/2018","JobStatus":3},
{"TypeOfOrder":0,"ReqDescription":"Quo Lux","DateOfRequest":"2/9/2018","JobStatus":1},
{"TypeOfOrder":4,"ReqDescription":"Bitchip","DateOfRequest":"4/5/2018","JobStatus":3},
{"TypeOfOrder":3,"ReqDescription":"Alpha","DateOfRequest":"6/24/2018","JobStatus":0},
{"TypeOfOrder":7,"ReqDescription":"Zoolab","DateOfRequest":"8/12/2018","JobStatus":1},
{"TypeOfOrder":7,"ReqDescription":"Voyatouch","DateOfRequest":"12/3/2018","JobStatus":3},
{"TypeOfOrder":4,"ReqDescription":"Zoolab","DateOfRequest":"11/3/2018","JobStatus":2},
{"TypeOfOrder":5,"ReqDescription":"Home Ing","DateOfRequest":"12/29/2018","JobStatus":3},
{"TypeOfOrder":2,"ReqDescription":"Ronstring","DateOfRequest":"7/21/2018","JobStatus":0},
{"TypeOfOrder":0,"ReqDescription":"Redhold","DateOfRequest":"9/1/2018","JobStatus":1},
{"TypeOfOrder":6,"ReqDescription":"Fintone","DateOfRequest":"7/8/2018","JobStatus":3},
{"TypeOfOrder":0,"ReqDescription":"Trippledex","DateOfRequest":"10/4/2018","JobStatus":3},
{"TypeOfOrder":0,"ReqDescription":"Bytecard","DateOfRequest":"5/5/2018","JobStatus":2},
{"TypeOfOrder":4,"ReqDescription":"Wrapsafe","DateOfRequest":"11/14/2018","JobStatus":3},
{"TypeOfOrder":8,"ReqDescription":"Biodex","DateOfRequest":"4/9/2018","JobStatus":0},
{"TypeOfOrder":3,"ReqDescription":"Voltsillam","DateOfRequest":"6/13/2018","JobStatus":0},
{"TypeOfOrder":0,"ReqDescription":"Voltsillam","DateOfRequest":"1/23/2018","JobStatus":3},
{"TypeOfOrder":6,"ReqDescription":"Home Ing","DateOfRequest":"12/21/2018","JobStatus":1},
{"TypeOfOrder":6,"ReqDescription":"Ronstring","DateOfRequest":"5/31/2018","JobStatus":3},
{"TypeOfOrder":2,"ReqDescription":"Vagram","DateOfRequest":"7/2/2018","JobStatus":1},
{"TypeOfOrder":6,"ReqDescription":"Transcof","DateOfRequest":"3/2/2018","JobStatus":1},
{"TypeOfOrder":0,"ReqDescription":"Tempsoft","DateOfRequest":"5/31/2018","JobStatus":2},
{"TypeOfOrder":8,"ReqDescription":"Konklux","DateOfRequest":"11/6/2018","JobStatus":2},
{"TypeOfOrder":4,"ReqDescription":"Tempsoft","DateOfRequest":"4/14/2018","JobStatus":3},
{"TypeOfOrder":8,"ReqDescription":"Prodder","DateOfRequest":"5/16/2018","JobStatus":3},
{"TypeOfOrder":0,"ReqDescription":"Voyatouch","DateOfRequest":"8/17/2018","JobStatus":2},
{"TypeOfOrder":5,"ReqDescription":"Trippledex","DateOfRequest":"3/8/2018","JobStatus":0},
{"TypeOfOrder":0,"ReqDescription":"Temp","DateOfRequest":"12/18/2018","JobStatus":1},
{"TypeOfOrder":8,"ReqDescription":"Zaam-Dox","DateOfRequest":"12/24/2018","JobStatus":0},
{"TypeOfOrder":3,"ReqDescription":"Asoka","DateOfRequest":"11/10/2018","JobStatus":1},
{"TypeOfOrder":5,"ReqDescription":"Fintone","DateOfRequest":"1/1/2018","JobStatus":3},
{"TypeOfOrder":0,"ReqDescription":"Alpha","DateOfRequest":"12/24/2018","JobStatus":2},
{"TypeOfOrder":4,"ReqDescription":"Domainer","DateOfRequest":"5/13/2018","JobStatus":0},
{"TypeOfOrder":8,"ReqDescription":"Alpha","DateOfRequest":"12/4/2018","JobStatus":0},
{"TypeOfOrder":1,"ReqDescription":"Domainer","DateOfRequest":"6/14/2018","JobStatus":2},
{"TypeOfOrder":6,"ReqDescription":"Toughjoyfax","DateOfRequest":"10/19/2018","JobStatus":0},
{"TypeOfOrder":5,"ReqDescription":"Veribet","DateOfRequest":"12/29/2018","JobStatus":0},
{"TypeOfOrder":0,"ReqDescription":"Lotstring","DateOfRequest":"8/14/2018","JobStatus":2},
{"TypeOfOrder":5,"ReqDescription":"Trippledex","DateOfRequest":"8/19/2018","JobStatus":0},
{"TypeOfOrder":3,"ReqDescription":"Tempsoft","DateOfRequest":"7/3/2018","JobStatus":1},
{"TypeOfOrder":6,"ReqDescription":"Viva","DateOfRequest":"6/16/2018","JobStatus":2},
{"TypeOfOrder":6,"ReqDescription":"Flexidy","DateOfRequest":"12/6/2018","JobStatus":1},
{"TypeOfOrder":4,"ReqDescription":"Opela","DateOfRequest":"3/20/2018","JobStatus":2},
{"TypeOfOrder":4,"ReqDescription":"Konklux","DateOfRequest":"7/4/2018","JobStatus":0},
{"TypeOfOrder":8,"ReqDescription":"Andalax","DateOfRequest":"10/21/2018","JobStatus":1},
{"TypeOfOrder":2,"ReqDescription":"Namfix","DateOfRequest":"6/2/2018","JobStatus":3},
{"TypeOfOrder":7,"ReqDescription":"Cardguard","DateOfRequest":"12/25/2018","JobStatus":1},
{"TypeOfOrder":7,"ReqDescription":"Bitchip","DateOfRequest":"4/9/2018","JobStatus":2},
{"TypeOfOrder":3,"ReqDescription":"Hatity","DateOfRequest":"8/2/2018","JobStatus":2},
{"TypeOfOrder":8,"ReqDescription":"Opela","DateOfRequest":"10/6/2018","JobStatus":2},
{"TypeOfOrder":7,"ReqDescription":"Lotstring","DateOfRequest":"2/16/2018","JobStatus":1},
{"TypeOfOrder":3,"ReqDescription":"Overhold","DateOfRequest":"9/14/2018","JobStatus":0},
{"TypeOfOrder":3,"ReqDescription":"Flexidy","DateOfRequest":"10/31/2018","JobStatus":3},
{"TypeOfOrder":0,"ReqDescription":"Mat Lam Tam","DateOfRequest":"10/21/2018","JobStatus":2},
{"TypeOfOrder":2,"ReqDescription":"Zathin","DateOfRequest":"2/26/2018","JobStatus":3},
{"TypeOfOrder":1,"ReqDescription":"Zaam-Dox","DateOfRequest":"5/18/2018","JobStatus":1},
{"TypeOfOrder":3,"ReqDescription":"Flowdesk","DateOfRequest":"1/24/2018","JobStatus":3},
{"TypeOfOrder":6,"ReqDescription":"Trippledex","DateOfRequest":"7/5/2018","JobStatus":2},
{"TypeOfOrder":0,"ReqDescription":"Wrapsafe","DateOfRequest":"4/30/2018","JobStatus":2},
{"TypeOfOrder":0,"ReqDescription":"Tempsoft","DateOfRequest":"8/28/2018","JobStatus":0},
{"TypeOfOrder":0,"ReqDescription":"Alphazap","DateOfRequest":"12/6/2018","JobStatus":2},
{"TypeOfOrder":8,"ReqDescription":"Ronstring","DateOfRequest":"9/26/2018","JobStatus":1},
{"TypeOfOrder":0,"ReqDescription":"Quo Lux","DateOfRequest":"6/19/2018","JobStatus":2},
{"TypeOfOrder":1,"ReqDescription":"Home Ing","DateOfRequest":"5/21/2018","JobStatus":3},
{"TypeOfOrder":3,"ReqDescription":"Greenlam","DateOfRequest":"3/24/2018","JobStatus":2},
{"TypeOfOrder":3,"ReqDescription":"Stringtough","DateOfRequest":"3/4/2018","JobStatus":0},
{"TypeOfOrder":3,"ReqDescription":"Zontrax","DateOfRequest":"10/16/2018","JobStatus":2},
{"TypeOfOrder":6,"ReqDescription":"Bigtax","DateOfRequest":"8/9/2018","JobStatus":2},
{"TypeOfOrder":8,"ReqDescription":"Cardify","DateOfRequest":"10/2/2018","JobStatus":3},
{"TypeOfOrder":2,"ReqDescription":"Konklab","DateOfRequest":"10/16/2018","JobStatus":2},
{"TypeOfOrder":7,"ReqDescription":"Voltsillam","DateOfRequest":"9/28/2018","JobStatus":3},
{"TypeOfOrder":4,"ReqDescription":"Overhold","DateOfRequest":"7/4/2018","JobStatus":0},
{"TypeOfOrder":0,"ReqDescription":"Tres-Zap","DateOfRequest":"3/11/2018","JobStatus":0},
{"TypeOfOrder":3,"ReqDescription":"Bitchip","DateOfRequest":"6/13/2018","JobStatus":0}]